{
  "Key" : [ {
    "tagId" : "AIid1",
    "Status" : "Normal"
  }, {
    "tagId" : "AIid2",
    "Status" : "Normal"
  }, {
    "tagId" : "AIid3",
    "Status" : "Normal"
  }, {
    "tagId" : "AIid4",
    "Status" : "Normal"
  }, {
    "tagId" : "AIid5",
    "Status" : "Normal"
  }, {
    "tagId" : "AIid6",
    "Status" : "Normal"
  }, {
    "tagId" : "AIid7",
    "Status" : "Normal"
  }, {
    "tagId" : "AIid8",
    "Status" : "Normal"
  }, {
    "tagId" : "AIid9",
    "Status" : "Normal"
  }, {
    "tagId" : "AIid10",
    "Status" : "Normal"
  }, {
    "tagId" : "AIid11",
    "Status" : "Normal"
  }, {
    "tagId" : "AIid12",
    "Status" : "Normal"
  }, {
    "tagId" : "AIid13",
    "Status" : "Normal"
  }, {
    "tagId" : "AIid14",
    "Status" : "Normal"
  }, {
    "tagId" : "AIid15",
    "Status" : "Normal"
  }, {
    "tagId" : "AIid16",
    "Status" : "Normal"
  }, {
    "tagId" : "AIid17",
    "Status" : "Normal"
  }, {
    "tagId" : "AIid18",
    "Status" : "Normal"
  }, {
    "tagId" : "AIid19",
    "Status" : "Normal"
  }, {
    "tagId" : "AIid20",
    "Status" : "Normal"
  }, {
    "tagId" : "AIid21",
    "Status" : "Normal"
  }, {
    "tagId" : "AIid22",
    "Status" : "Normal"
  }, {
    "tagId" : "AIid23",
    "Status" : "Normal"
  }, {
    "tagId" : "AIid24",
    "Status" : "Normal"
  }, {
    "tagId" : "AIid25",
    "Status" : "Normal"
  }, {
    "tagId" : "AIid26",
    "Status" : "Normal"
  }, {
    "tagId" : "AIid27",
    "Status" : "Normal"
  }, {
    "tagId" : "AIid28",
    "Status" : "Normal"
  }, {
    "tagId" : "AIid29",
    "Status" : "Normal"
  }, {
    "tagId" : "AIid30",
    "Status" : "Normal"
  }, {
    "tagId" : "AIid31",
    "Status" : "Normal"
  }, {
    "tagId" : "AIid32",
    "Status" : "Normal"
  }, {
    "tagId" : "AIid33",
    "Status" : "Normal"
  }, {
    "tagId" : "AIid34",
    "Status" : "Normal"
  }, {
    "tagId" : "AIid35",
    "Status" : "Normal"
  }, {
    "tagId" : "AIid36",
    "Status" : "Normal"
  }, {
    "tagId" : "AIid37",
    "Status" : "Normal"
  }, {
    "tagId" : "AIid38",
    "Status" : "Normal"
  }, {
    "tagId" : "AIid39",
    "Status" : "Normal"
  }, {
    "tagId" : "DIid1",
    "Status" : "Normal"
  }, {
    "tagId" : "DIid2",
    "Status" : "Normal"
  }, {
    "tagId" : "DIid3",
    "Status" : "Normal"
  } ]
}