{
    "$schema": "http://json-schema.org/draft-07/schema",
    "type": "object",
    "javaType":"ruffwurk.DeviceMapping",
    "description": "Device mapping schema.",
    "title": "Device Mapping",
    "required":[
        "registers"
    ],
    "properties": {
        "device"
        "registers": {
            "type":"array",
            "description":"An array of registers for the device.",
            "items":{
                "type":"string"
            }
        }
    }
}